 { "value": "salary", "tournament": "2019-09-22-Sanderson", "golfers": {
"Joaquin Niemann": 11300,
"Brandt Snedeker": 10700,
"Sungjae Im": 10500,
"Lucas Glover": 10200,
"Byeong Hun An": 10000,
"Scottie Scheffler": 9900,
"Cameron Smith": 9800,
"Brian Harman": 9700,
"Corey Conners": 9600,
"J.T. Poston": 9500,
"Emiliano Grillo": 9400,
"Vaughn Taylor": 9300,
"Dylan Frittelli": 9200,
"Russell Henley": 9100,
"Austin Cook": 9000,
"Denny McCarthy": 8900,
"Martin Laird": 8800,
"Si Woo Kim": 8700,
"Cameron Champ": 8600,
"Aaron Wise": 8500,
"Wyndham Clark": 8400,
"Nick Taylor": 8300,
"Bronson Burgoon": 8200,
"Kyle Stanley": 8100,
"Luke List": 8000,
"Kevin Streelman": 7900,
"Sebastian Munoz": 7900,
"Harris English": 7800,
"Ryan Armour": 7800,
"Sam Burns": 7700,
"Zach Johnson": 7700,
"Richy Werenski": 7600,
"Grayson Murray": 7600,
"Matt Jones": 7600,
"Bill Haas": 7500,
"Charley Hoffman": 7500,
"Jason Dufner": 7500,
"Robert Streb": 7400,
"Tom Hoge": 7400,
"Roberto Castro": 7400,
"Lanto Griffin": 7300,
"Cameron Tringale": 7300,
"Chesson Hadley": 7300,
"Adam Schenk": 7300,
"Peter Uihlein": 7200,
"Robby Shelton": 7200,
"Brice Garnett": 7200,
"Sepp Straka": 7200,
"Doc Redman": 7200,
"Kramer Hickok": 7100,
"Patrick Rodgers": 7100,
"Mark Hubbard": 7100,
"Jimmy Walker": 7100,
"Joseph Bramlett": 7100,
"Anirban Lahiri": 7000,
"Harry Higgs": 7000,
"Sam Ryder": 7000,
"Andrew Landry": 7000,
"J.J. Spaun": 7000,
"Michael Thompson": 6900,
"Brian Stuard": 6900,
"Carlos Ortiz": 6900,
"Scott Stallings": 6900,
"Peter Malnati": 6900,
"Scott Harrington": 6900,
"D.J. Trahan": 6800,
"Zac Blair": 6800,
"Hank Lebioda": 6800,
"Adam Long": 6800,
"Brandon Hagy": 6800,
"Scott Brown": 6800,
"Fabian Gomez": 6700,
"Patton Kizzire": 6700,
"David Hearn": 6700,
"Cameron Davis": 6700,
"Shawn Stefani": 6700,
"Cameron Percy": 6700,
"Ryan Brehm": 6700,
"Zack Sucher": 6600,
"Dominic Bozzelli": 6600,
"Kyoung-Hoon Lee": 6600,
"Ben Martin": 6600,
"Seamus Power": 6600,
"Doug Ghim": 6600,
"Ryan Blaum": 6600,
"Adam Svensson": 6600,
"Jonathan Byrd": 6500,
"Chase Seiffert": 6500,
"Henrik Norlander": 6500,
"Brian Gay": 6500,
"Brendon Todd": 6500,
"David Lingmerth": 6500,
"Rob Oppenheim": 6500,
"Tyler Duncan": 6500,
"Xinjun Zhang": 6400,
"Josh Teater": 6400,
"Morgan Hoffmann": 6400,
"Johnson Wagner": 6400,
"Matt Every": 6400,
"Maverick McNealy": 6400,
"Tyler McCumber": 6400,
"Matthew NeSmith": 6400,
"Stephan Jaeger": 6400,
"Stewart Cink": 6300,
"Chris Baker": 6300,
"Ted Potter Jr.": 6300,
"Jamie Lovemark": 6300,
"Davis Riley": 6300,
"Justin Suh": 6300,
"Bo Hoag": 6300,
"Wes Roach": 6300,
"Mark Anderson": 6300,
"Rhein Gibson": 6300,
"Chip McDaniel": 6300,
"Sang-Moon Bae": 6200,
"George McNeill": 6200,
"K.J. Choi": 6200,
"John Merrick": 6200,
"Tim Wilkinson": 6200,
"Ben Crane": 6200,
"Robert Garrigus": 6200,
"Chad Campbell": 6200,
"Derek Ernst": 6200,
"Billy Hurley": 6200,
"Jim Herman": 6200,
"Alex Cejka": 6200,
"Ricky Barnes": 6100,
"Ben Taylor": 6100,
"Martin Trainer": 6100,
"Michael Kim": 6100,
"Fredrik Jacobson": 6100,
"J.J. Henry": 6100,
"Sebastian Cappelen": 6100,
"Vince Covello": 6100,
"Kevin Stadler": 6100,
"Rafael Campos": 6100,
"Braden Thornberry": 6100,
"Akshay Bhatia": 6100,
"Nelson Ledesma": 6100,
"Vincent Whaley": 6100,
"Tommy Gainey": 6000,
"John Rollins": 6000,
"Arjun Atwal": 6000,
"Robert Allenby": 6000,
"Greg Sonnier": 6000,
"Brendon De Jonge": 6000,
"Michael Gligic": 6000,
"Boo Weekley": 6000,
"Michael Gellerman": 6000,
"John Senden": 6000,
"Will Gordon": 6000,
"Chandler Phillips": 6000,
"Daniel Chopra": 6000,
"Tim Herron": 6000,
"Parker McLachlin": 6000,
"Garrett Osborn": 6000 }} 
