 { "value": "salary", "tournament": "2020-02-09-Pebble", "golfers": {
"Dustin Johnson": 11600,
"Patrick Cantlay": 10900,
"Paul Casey": 10500,
"Jason Day": 10300,
"Brandt Snedeker": 10100,
"Matt Kuchar": 9900,
"Matthew Fitzpatrick": 9700,
"Phil Mickelson": 9500,
"Branden Grace": 9300,
"Graeme McDowell": 9200,
"Viktor Hovland": 9100,
"Jordan Spieth": 9000,
"Daniel Berger": 8900,
"Cameron Champ": 8800,
"Alex Noren": 8700,
"Russell Knox": 8600,
"Kevin Kisner": 8500,
"Rafa Cabrera Bello": 8400,
"Max Homa": 8300,
"Chez Reavie": 8200,
"Adam Hadwin": 8100,
"Kurt Kitayama": 8000,
"Tom Hoge": 7900,
"J.B. Holmes": 7900,
"Scott Piercy": 7800,
"Jim Furyk": 7800,
"Vaughn Taylor": 7700,
"Kevin Na": 7700,
"Lucas Glover": 7600,
"Scott Stallings": 7600,
"Pat Perez": 7500,
"Nate Lashley": 7500,
"Patrick Rodgers": 7400,
"Kevin Streelman": 7400,
"Andrew Landry": 7400,
"Cameron Davis": 7300,
"Nick Watney": 7300,
"Sung Kang": 7300,
"Adam Long": 7300,
"Maverick McNealy": 7300,
"Lanto Griffin": 7200,
"Aaron Wise": 7200,
"Jimmy Walker": 7200,
"Xinjun Zhang": 7200,
"Harry Higgs": 7200,
"Charley Hoffman": 7200,
"Chesson Hadley": 7100,
"Beau Hossler": 7100,
"Mark Hubbard": 7100,
"Joel Dahmen": 7100,
"Wyndham Clark": 7100,
"Matthew NeSmith": 7100,
"Nick Taylor": 7000,
"Cameron Tringale": 7000,
"Matt Jones": 7000,
"Henrik Norlander": 7000,
"Harold Varner III": 7000,
"Keith Mitchell": 7000,
"Charl Schwartzel": 6900,
"Brian Gay": 6900,
"Kiradech Aphibarnrat": 6900,
"Brian Stuard": 6900,
"Ted Potter Jr.": 6900,
"James Hahn": 6900,
"Brandon Wu": 6900,
"Aaron Baddeley": 6800,
"Jason Dufner": 6800,
"Sean O'Hair": 6800,
"Chase Seiffert": 6800,
"D.J. Trahan": 6800,
"J.J. Spaun": 6800,
"Kevin Chappell": 6800,
"Michael Thompson": 6700,
"Bill Haas": 6700,
"Zac Blair": 6700,
"Adam Schenk": 6700,
"Doc Redman": 6700,
"Brandon Hagy": 6700,
"Sebastian Cappelen": 6700,
"Brice Garnett": 6600,
"Peter Uihlein": 6600,
"David Hearn": 6600,
"Troy Merritt": 6600,
"Tyler McCumber": 6600,
"Tim Wilkinson": 6600,
"Ben Martin": 6600,
"Steve Stricker": 6600,
"Stewart Cink": 6500,
"Ryan Armour": 6500,
"Bo Hoag": 6500,
"Mark Anderson": 6500,
"Luke Donald": 6500,
"Scott Brown": 6500,
"Hank Lebioda": 6500,
"Tyler Duncan": 6500,
"Si Woo Kim": 6400,
"Padraig Harrington": 6400,
"David Lingmerth": 6400,
"Chris Stroud": 6400,
"Chris Kirk": 6400,
"Austin Cook": 6400,
"Seamus Power": 6400,
"Richy Werenski": 6400,
"Roberto Castro": 6400,
"Peter Malnati": 6300,
"Justin Suh": 6300,
"Rob Oppenheim": 6300,
"Kramer Hickok": 6300,
"Josh Teater": 6300,
"Joseph Bramlett": 6300,
"Ricky Barnes": 6300,
"Anirban Lahiri": 6300,
"K.J. Choi": 6300,
"Jim Herman": 6200,
"Alex Cejka": 6200,
"Ryan Brehm": 6200,
"Matt Every": 6200,
"Robert Streb": 6200,
"Wes Roach": 6200,
"Kyoung-Hoon Lee": 6200,
"Fabian Gomez": 6200,
"Doug Ghim": 6200,
"Chris Baker": 6200,
"Sam Saunders": 6200,
"Arjun Atwal": 6200,
"Satoshi Kodaira": 6100,
"Isaiah Salinda": 6100,
"Chad Campbell": 6100,
"Scott Harrington": 6100,
"Greg Chalmers": 6100,
"Johnson Wagner": 6100,
"Dominic Bozzelli": 6100,
"Rhein Gibson": 6100,
"Zack Sucher": 6100,
"Mackenzie Hughes": 6100,
"Ben Taylor": 6100,
"John Merrick": 6100,
"Michael Gellerman": 6100,
"Rod Pampling": 6100,
"Kristoffer Ventura": 6000,
"Jonathan Byrd": 6000,
"Vincent Whaley": 6000,
"Smylie Kaufman": 6000,
"D.A. Points": 6000,
"John Senden": 6000,
"David Duval": 6000,
"Patrick Martin": 6000,
"Hunter Mahan": 6000,
"Nelson Ledesma": 6000,
"Bo Van Pelt": 6000,
"George McNeill": 6000,
"Robert Garrigus": 6000,
"Michael Gligic": 6000,
"Kevin Stadler": 6000,
"Martin Trainer": 6000,
"Scott De Borba": 6000 }} 
