 { "value": "salary", "tournament": "2020-10-18-CJ-Cup", "golfers": {
"Justin Thomas": 10800,
"Jon Rahm": 10400,
"Xander Schauffele": 10200,
"Rory McIlroy": 10000,
"Matthew Wolff": 9700,
"Collin Morikawa": 9500,
"Patrick Cantlay": 9300,
"Brooks Koepka": 9200,
"Sungjae Im": 9100,
"Viktor Hovland": 9000,
"Daniel Berger": 8900,
"Tyrrell Hatton": 8800,
"Harris English": 8700,
"Louis Oosthuizen": 8600,
"Hideki Matsuyama": 8500,
"Scottie Scheffler": 8400,
"Abraham Ancer": 8300,
"Tommy Fleetwood": 8200,
"Ryan Palmer": 8100,
"Matthew Fitzpatrick": 8000,
"Adam Hadwin": 8000,
"Mackenzie Hughes": 7900,
"Brendon Todd": 7900,
"Sergio Garcia": 7800,
"Lanto Griffin": 7800,
"Gary Woodland": 7700,
"Joaquin Niemann": 7700,
"Rickie Fowler": 7600,
"J.T. Poston": 7600,
"Shane Lowry": 7500,
"Kevin Na": 7500,
"Cameron Champ": 7500,
"Justin Rose": 7400,
"Brian Harman": 7400,
"Jason Day": 7400,
"Jordan Spieth": 7300,
"Ian Poulter": 7300,
"Kevin Streelman": 7300,
"Alex Noren": 7200,
"Si Woo Kim": 7200,
"Sebastian Munoz": 7200,
"Bubba Watson": 7100,
"Paul Casey": 7100,
"Mark Hubbard": 7100,
"Cameron Smith": 7000,
"Russell Henley": 7000,
"Billy Horschel": 7000,
"Kevin Kisner": 6900,
"Jason Kokrak": 6900,
"Corey Conners": 6900,
"Brendan Steele": 6800,
"Joel Dahmen": 6800,
"Matt Kuchar": 6800,
"Marc Leishman": 6700,
"Dylan Frittelli": 6700,
"Adam Long": 6700,
"Keegan Bradley": 6600,
"Byeong Hun An": 6600,
"Harry Higgs": 6600,
"Carlos Ortiz": 6500,
"Robby Shelton": 6500,
"Joohyung Kim": 6500,
"Michael Thompson": 6400,
"Talor Gooch": 6400,
"Tom Hoge": 6400,
"Richy Werenski": 6300,
"Danny Lee": 6300,
"Jeongwoo Ham": 6300,
"Nick Taylor": 6200,
"Sung Kang": 6200,
"Tyler Duncan": 6200,
"Kyoung-Hoon Lee": 6100,
"Andrew Landry": 6100,
"Seonghyeon Kim": 6100,
"Jim Herman": 6000,
"Tae Hee Lee": 6000,
"Jaekyeong Lee": 6000,
"Hanbyeol Kim": 6000 }} 
