 { "value": "salary", "tournament": "2020-01-05-Stentry", "golfers": {
"Jon Rahm": 11400,
"Justin Thomas": 11200,
"Xander Schauffele": 10600,
"Dustin Johnson": 10100,
"Patrick Cantlay": 9800,
"Rickie Fowler": 9500,
"Gary Woodland": 9300,
"Patrick Reed": 9000,
"Paul Casey": 8800,
"Collin Morikawa": 8600,
"Matt Kuchar": 8400,
"Cameron Champ": 8200,
"Brendon Todd": 8100,
"Joaquin Niemann": 8000,
"Matthew Wolff": 7900,
"Corey Conners": 7800,
"Kevin Kisner": 7700,
"Chez Reavie": 7600,
"Kevin Na": 7500,
"J.T. Poston": 7400,
"Dylan Frittelli": 7300,
"Ryan Palmer": 7200,
"Sebastian Munoz": 7100,
"Keith Mitchell": 7000,
"Adam Long": 6900,
"Nate Lashley": 6800,
"Graeme McDowell": 6700,
"Sung Kang": 6600,
"Lanto Griffin": 6500,
"Tyler Duncan": 6400,
"Max Homa": 6300,
"J.B. Holmes": 6200,
"Jim Herman": 6100,
"Martin Trainer": 6000 }} 
