 { "value": "salary", "tournament": "2020-02-16-Genesis", "golfers": {
"Collin Morikawa": 9200,
"Sungjae Im": 8800,
"Tony Finau": 9600,
"Rory McIlroy": 11600,
"Dustin Johnson": 11600,
"Patrick Cantlay": 10900,
"Bubba Watson": 9000,
"Alex Noren": 8700,
"Tiger Woods": 10800,
"Justin Rose": 10300,
"Justin Thomas": 11200,
"Adam Scott": 9300,
"Paul Casey": 10500,
"Hideki Matsuyama": 10100,
"Jon Rahm": 11400,
"Carlos Ortiz": 7100,
"Brooks Koepka": 11700,
"Patrick Reed": 9200,
"Abraham Ancer": 8900,
"J.B. Holmes": 7900,
"Sergio Garcia": 8000,
"Joaquin Niemann": 8600,
"Max Homa": 8300,
"Bryson DeChambeau": 9100,
"Matt Kuchar": 9900,
"Charles Howell III": 10100,
"Corey Conners": 7900,
"Jordan Spieth": 9000,
"Scottie Scheffler": 8500,
"Jason Day": 10300,
"Lanto Griffin": 7200,
"Denny McCarthy": 7200,
"Marc Leishman": 8300,
"Jason Kokrak": 7900,
"Kevin Na": 7700,
"Phil Mickelson": 9500,
"J.T. Poston": 7600,
"Matthew Fitzpatrick": 9700,
"Cameron Champ": 8800,
"Nick Taylor": 7000,
"Scott Piercy": 7800,
"Cameron Smith": 8100,
"Erik Van Rooyen": 7500,
"Brian Harman": 7800,
"Adam Hadwin": 8100,
"Talor Gooch": 7000,
"Keegan Bradley": 7700,
"Ryan Moore": 8000,
"Ryan Palmer": 8200,
"Luke List": 6700,
"Cameron Tringale": 7000,
"Matthew Wolff": 8000,
"Vaughn Taylor": 7700,
"Patrick Rodgers": 7400,
"Joel Dahmen": 7100,
"Aaron Baddeley": 6800,
"Matt Jones": 7000,
"Russell Knox": 8600,
"Harold Varner III": 7000,
"Jim Furyk": 7800,
"Brendon Todd": 8800,
"Dylan Frittelli": 7000,
"Francesco Molinari": 7900,
"Sebastian Munoz": 7200,
"Wyndham Clark": 7100,
"Kevin Tway": 6700,
"Bud Cauley": 7500,
"Brian Gay": 6900,
"Sung Kang": 7300,
"Andrew Putnam": 7500,
"Adam Long": 7300,
"Charley Hoffman": 7200,
"Pat Perez": 7500,
"Joseph Bramlett": 6300,
"Branden Grace": 9300,
"Rafa Cabrera Bello": 8400,
"Jhonattan Vegas": 7000,
"Brian Stuard": 6900,
"Martin Laird": 7200,
"Kevin Chappell": 6800,
"Danny Lee": 6600,
"Nick Watney": 7300,
"Chez Reavie": 8200,
"Rory Sabbatini": 7300,
"James Hahn": 6900,
"Danny Willett": 8100,
"Bronson Burgoon": 6700,
"Scott Stallings": 7600,
"Si Woo Kim": 6400,
"Sam Burns": 6800,
"Emiliano Grillo": 7300,
"Nate Lashley": 7500,
"Kiradech Aphibarnrat": 6900,
"Adam Schenk": 6700,
"Matt Every": 6200,
"Aaron Wise": 7200,
"Kyoung-Hoon Lee": 6200,
"Sepp Straka": 6800,
"Troy Merritt": 6600,
"C.T. Pan": 6500,
"Peter Malnati": 6300,
"Ryan Armour": 6500,
"Sam Ryder": 6600,
"Scott Brown": 6500,
"Jimmy Walker": 7200,
"Steve Stricker": 6600,
"J.J. Spaun": 6800,
"Michael Thompson": 6700,
"Jason Dufner": 6800,
"Russell Henley": 7000,
"Andrew Landry": 7400,
"Kyle Stanley": 7000,
"Jim Herman": 6200,
"Tyler Duncan": 6500,
"Chris Stroud": 6400,
"Roger Sloan": 6000,
"Martin Trainer": 6000 }} 
