 { "value": "salary", "tournament": "2020-03-08-Bayhill", "golfers": {
"Rory McIlroy": 11800,
"Tommy Fleetwood": 11000,
"Hideki Matsuyama": 10600,
"Bryson DeChambeau": 10400,
"Xander Schauffele": 10000,
"Adam Scott": 9700,
"Sungjae Im": 9500,
"Patrick Reed": 9400,
"Rickie Fowler": 9300,
"Brooks Koepka": 9200,
"Jason Day": 9100,
"Justin Rose": 9000,
"Tony Finau": 8900,
"Henrik Stenson": 8800,
"Byeong Hun An": 8700,
"Marc Leishman": 8600,
"Matthew Fitzpatrick": 8500,
"Collin Morikawa": 8400,
"Bubba Watson": 8300,
"Lee Westwood": 8200,
"Tyrrell Hatton": 8100,
"Billy Horschel": 8000,
"Viktor Hovland": 8000,
"Max Homa": 7900,
"Phil Mickelson": 7900,
"Kevin Kisner": 7800,
"Abraham Ancer": 7800,
"Wyndham Clark": 7700,
"Scottie Scheffler": 7700,
"J.T. Poston": 7600,
"Ian Poulter": 7600,
"Rafa Cabrera Bello": 7600,
"Charl Schwartzel": 7500,
"Joaquin Niemann": 7500,
"Brendan Steele": 7500,
"Bud Cauley": 7400,
"Harris English": 7400,
"Maverick McNealy": 7400,
"Ryan Moore": 7400,
"J.B. Holmes": 7400,
"Alex Noren": 7300,
"Lucas Glover": 7300,
"Scott Piercy": 7300,
"Joel Dahmen": 7300,
"Kevin Na": 7300,
"Jason Kokrak": 7200,
"Vaughn Taylor": 7200,
"Charles Howell III": 7200,
"Francesco Molinari": 7200,
"Russell Knox": 7200,
"Christiaan Bezuidenhout": 7100,
"Matthew Wolff": 7100,
"Harold Varner III": 7100,
"Emiliano Grillo": 7100,
"Carlos Ortiz": 7100,
"Kevin Streelman": 7000,
"Brian Harman": 7000,
"Tom Hoge": 7000,
"Talor Gooch": 7000,
"Keegan Bradley": 7000,
"Graeme McDowell": 6900,
"Brendon Todd": 6900,
"Corey Conners": 6900,
"Sebastian Munoz": 6900,
"Cameron Champ": 6900,
"Matthew NeSmith": 6800,
"Sung Kang": 6800,
"Danny Willett": 6800,
"Matt Wallace": 6800,
"Lanto Griffin": 6800,
"Harry Higgs": 6700,
"Rory Sabbatini": 6700,
"Andrew Putnam": 6700,
"Adam Long": 6700,
"Matt Jones": 6700,
"Nick Taylor": 6700,
"Zach Johnson": 6600,
"Patrick Rodgers": 6600,
"Beau Hossler": 6600,
"Keith Mitchell": 6600,
"Sam Burns": 6600,
"Jazz Janewattananond": 6600,
"Denny McCarthy": 6500,
"Brian Stuard": 6500,
"Danny Lee": 6500,
"Mark Hubbard": 6500,
"Dylan Frittelli": 6500,
"Charley Hoffman": 6500,
"Stewart Cink": 6400,
"Henrik Norlander": 6400,
"Jimmy Walker": 6400,
"Pat Perez": 6400,
"Nate Lashley": 6400,
"Sam Ryder": 6400,
"Doc Redman": 6300,
"Robby Shelton": 6300,
"Chun An Yu": 6300,
"Matt Every": 6300,
"Tyler Duncan": 6300,
"Scott Brown": 6300,
"Xinjun Zhang": 6200,
"Kevin Tway": 6200,
"Brian Gay": 6200,
"Kevin Chappell": 6200,
"Si Woo Kim": 6200,
"Troy Merritt": 6200,
"Sam Saunders": 6200,
"Steve Stricker": 6100,
"C.T. Pan": 6100,
"Zac Blair": 6100,
"Anirban Lahiri": 6100,
"Davis Love III": 6100,
"Rob Oppenheim": 6100,
"Padraig Harrington": 6100,
"Vijay Singh": 6000,
"Jim Herman": 6000,
"Scott Harrington": 6000,
"Brandon Matthews": 6000,
"Hank Lebioda": 6000,
"Rod Perry": 6000,
"Robert Gamez": 6000 }} 
