 { "value": "salary", "tournament": "2021-11-21-RSM", "golfers": {
"Scottie Scheffler": 10900,
"Webb Simpson": 10700,
"Louis Oosthuizen": 10400,
"Cameron Smith": 10300,
"Harris English": 10100,
"Corey Conners": 9900,
"Joaquin Niemann": 9700,
"Russell Henley": 9600,
"Alex Noren": 9500,
"Talor Gooch": 9300,
"Kevin Kisner": 9200,
"Adam Scott": 9000,
"Keegan Bradley": 8900,
"Justin Rose": 8800,
"Max Homa": 8700,
"Mackenzie Hughes": 8600,
"Joel Dahmen": 8500,
"Brendon Todd": 8400,
"Mito Pereira": 8300,
"Seamus Power": 8200,
"Jhonattan Vegas": 8100,
"Chris Kirk": 8000,
"Matt Kuchar": 7900,
"Charles Howell III": 7800,
"Brian Harman": 7800,
"Danny Lee": 7700,
"Patrick Rodgers": 7700,
"Jason Day": 7600,
"Kevin Streelman": 7600,
"Matt Wallace": 7600,
"Adam Long": 7500,
"Luke List": 7500,
"Robert Streb": 7500,
"Troy Merritt": 7500,
"Aaron Rai": 7400,
"Branden Grace": 7400,
"Emiliano Grillo": 7400,
"Matthias Schwab": 7400,
"Hayden Buckley": 7300,
"Lanto Griffin": 7300,
"Sebastian Munoz": 7300,
"Henrik Norlander": 7300,
"Adam Hadwin": 7200,
"Brian Stuard": 7200,
"Doug Ghim": 7200,
"Tyler Duncan": 7200,
"Keith Mitchell": 7200,
"Alex Smalley": 7100,
"Dylan Frittelli": 7100,
"Kyle Stanley": 7100,
"Patton Kizzire": 7100,
"Taylor Moore": 7100,
"Adam Schenk": 7000,
"Brendan Steele": 7000,
"Chez Reavie": 7000,
"Denny McCarthy": 7000,
"Lucas Glover": 7000,
"Scott Piercy": 7000,
"Zach Johnson": 6900,
"Chad Ramey": 6900,
"Harry Higgs": 6900,
"Matt Jones": 6900,
"Stewart Cink": 6900,
"Tom Hoge": 6900,
"Andrew Landry": 6800,
"Cameron Davis": 6800,
"Cameron Young": 6800,
"Camilo Villegas": 6800,
"Matthew NeSmith": 6800,
"Rory Sabbatini": 6800,
"Wyndham Clark": 6800,
"Davis Riley": 6700,
"J.J. Spaun": 6700,
"Michael Thompson": 6700,
"Russell Knox": 6700,
"Scott Stallings": 6700,
"Stephan Jaeger": 6700,
"Taylor Pendrith": 6700,
"Greyson Sigg": 6600,
"Hank Lebioda": 6600,
"Hudson Swafford": 6600,
"John Huh": 6600,
"Kiradech Aphibarnrat": 6600,
"Kramer Hickok": 6600,
"Sahith Theegala": 6600,
"Vincent Whaley": 6600,
"Brice Garnett": 6500,
"Graeme McDowell": 6500,
"Kevin Tway": 6500,
"Lee Hodges": 6500,
"Ludvig Aberg": 6500,
"Nick Hardy": 6500,
"Sepp Straka": 6500,
"Vaughn Taylor": 6500,
"Andrew Putnam": 6400,
"Anirban Lahiri": 6400,
"Bronson Burgoon": 6400,
"David Lipsky": 6400,
"Davis Thompson": 6400,
"Dylan Wu": 6400,
"Justin Lower": 6400,
"Kelly Kraft": 6400,
"Peter Uihlein": 6400,
"Adam Svensson": 6300,
"Andrew Novak": 6300,
"Austin Cook": 6300,
"Brandt Snedeker": 6300,
"Chesson Hadley": 6300,
"J.T. Poston": 6300,
"Joseph Bramlett": 6300,
"Nate Lashley": 6300,
"Roger Sloan": 6300,
"Sam Ryder": 6300,
"Ben Kohles": 6200,
"Brandon Hagy": 6200,
"Brandon Wu": 6200,
"Chris Stroud": 6200,
"Doc Redman": 6200,
"Jim Herman": 6200,
"Luke Donald": 6200,
"Max McGreevy": 6200,
"Nick Watney": 6200,
"Richy Werenski": 6200,
"Trey Mullinax": 6200,
"Brian Gay": 6100,
"Curtis Thompson": 6100,
"David Skinns": 6100,
"Jimmy Walker": 6100,
"Jonathan Byrd": 6100,
"Kurt Kitayama": 6100,
"Peter Malnati": 6100,
"Scott Gutschewski": 6100,
"Seth Reeves": 6100,
"Sung Kang": 6100,
"Tyler McCumber": 6100,
"William McGirt": 6100,
"Austin Smotherman": 6000,
"Ben Crane": 6000,
"Bill Haas": 6000,
"Brett Drewitt": 6000,
"Callum Tarren": 6000,
"Davis Love III": 6000,
"Dawie Van der Walt": 6000,
"J.P. Griffin": 6000,
"Jared Wolfe": 6000,
"Jonas Blixt": 6000,
"Joshua Creel": 6000,
"Martin Trainer": 6000,
"Michael Gligic": 6000,
"Paul Barjon": 6000 }} 
