 { "value": "salary", "tournament": "2021-08-15-Wyndham", "golfers": {
"Louis Oosthuizen": 10600,
"Webb Simpson": 10400,
"Will Zalatoris": 10100,
"Hideki Matsuyama": 9900,
"Jason Kokrak": 9700,
"Russell Henley": 9500,
"Sungjae Im": 9400,
"Brian Harman": 9300,
"Matthew Wolff": 9200,
"Seamus Power": 9100,
"Mito Pereira": 9000,
"Robert Macintyre": 8900,
"Jhonattan Vegas": 8800,
"Adam Scott": 8700,
"Rickie Fowler": 8600,
"Kevin Na": 8500,
"Tommy Fleetwood": 8400,
"Si Woo Kim": 8300,
"Bubba Watson": 8200,
"Kevin Streelman": 8100,
"Sebastian Munoz": 8000,
"Gary Woodland": 7900,
"Hank Lebioda": 7900,
"Patton Kizzire": 7800,
"Chris Kirk": 7800,
"Charl Schwartzel": 7700,
"Talor Gooch": 7700,
"Kevin Kisner": 7600,
"Justin Rose": 7600,
"Zach Johnson": 7600,
"J.T. Poston": 7500,
"Brandt Snedeker": 7500,
"Joel Dahmen": 7500,
"Chez Reavie": 7500,
"Lucas Glover": 7400,
"Luke List": 7400,
"Ryan Armour": 7400,
"Doug Ghim": 7400,
"Mackenzie Hughes": 7300,
"Harold Varner III": 7300,
"Rory Sabbatini": 7300,
"Patrick Rodgers": 7300,
"Jim Herman": 7300,
"Adam Schenk": 7200,
"Erik Van Rooyen": 7200,
"Branden Grace": 7200,
"Brendon Todd": 7200,
"Roger Sloan": 7200,
"Sepp Straka": 7200,
"Ryan Moore": 7100,
"Richy Werenski": 7100,
"Bo Hoag": 7100,
"James Hahn": 7100,
"Jason Dufner": 7100,
"Keith Mitchell": 7100,
"Sam Ryder": 7100,
"C.T. Pan": 7000,
"Henrik Norlander": 7000,
"Kyle Stanley": 7000,
"Mark Hubbard": 7000,
"Camilo Villegas": 7000,
"Lanto Griffin": 7000,
"Doc Redman": 7000,
"Adam Long": 7000,
"Scott Piercy": 6900,
"Michael Thompson": 6900,
"Nick Taylor": 6900,
"Brian Stuard": 6900,
"Russell Knox": 6900,
"Scott Stallings": 6900,
"Matt Jones": 6900,
"Aaron Wise": 6900,
"Joseph Bramlett": 6900,
"Josh Teater": 6800,
"Tom Lewis": 6800,
"Kyoung-Hoon Lee": 6800,
"Adam Hadwin": 6800,
"Martin Laird": 6800,
"Matthew NeSmith": 6800,
"Alex Smalley": 6800,
"Akshay Bhatia": 6800,
"Anirban Lahiri": 6800,
"Andrew Putnam": 6700,
"Dylan Frittelli": 6700,
"Kramer Hickok": 6700,
"Francesco Molinari": 6700,
"Brice Garnett": 6700,
"Austin Eckroat": 6700,
"Davis Thompson": 6700,
"Bo Van Pelt": 6700,
"Cameron Percy": 6700,
"Beau Hossler": 6600,
"Wyndham Clark": 6600,
"Chesson Hadley": 6600,
"Byeong Hun An": 6600,
"Brandon Hagy": 6600,
"Matt Kuchar": 6600,
"Kiradech Aphibarnrat": 6600,
"Ben Martin": 6600,
"Robert Streb": 6600,
"Denny McCarthy": 6500,
"Sean O'Hair": 6500,
"Kevin Tway": 6500,
"Vincent Whaley": 6500,
"Michael Gligic": 6500,
"Tom Hoge": 6500,
"Austin Cook": 6500,
"Mark Anderson": 6500,
"John Senden": 6500,
"Satoshi Kodaira": 6400,
"Vaughn Taylor": 6400,
"Chase Seiffert": 6400,
"Aaron Baddeley": 6400,
"Nate Lashley": 6400,
"Peter Malnati": 6400,
"Hudson Swafford": 6400,
"Ryan Brehm": 6400,
"Martin Trainer": 6400,
"John Augenstein": 6300,
"Will Gordon": 6300,
"Harry Higgs": 6300,
"David Lingmerth": 6300,
"Sung Kang": 6300,
"Fabian Gomez": 6300,
"K.J. Choi": 6300,
"Michael Kim": 6300,
"Rob Oppenheim": 6300,
"Nick Watney": 6200,
"Luke Donald": 6200,
"Chris Baker": 6200,
"Scott Harrington": 6200,
"Tyler Duncan": 6200,
"Andrew Landry": 6200,
"Scott Brown": 6200,
"Jacob Bergeron": 6200,
"Jonas Blixt": 6200,
"Matt Vick": 6100,
"Rhein Gibson": 6100,
"Xinjun Zhang": 6100,
"D.J. Trahan": 6100,
"Ted Potter Jr.": 6100,
"J.J. Spaun": 6100,
"Kris Ventura": 6100,
"Ben Taylor": 6100,
"Connor Arendell": 6100,
"Sebastian Cappelen": 6100,
"Padraig Harrington": 6000,
"Bill Haas": 6000,
"Bronson Burgoon": 6000,
"Robby Shelton": 6000,
"Matt Every": 6000,
"Rafael Campos": 6000,
"Brian Gay": 6000,
"Tyler McCumber": 6000,
"Nelson Ledesma": 6000,
"Michael Gellerman": 6000 }} 
