{
  "golfers": {
    "Aaron Baddeley": 29.5,
    "Aaron Wise": 34,
    "Adam Hadwin": 113,
    "Adam Schenk": 80.5,
    "Alex Noren": 23.5,
    "Andrew Putnam": 19.5,
    "Arjun Atwal": 89.5,
    "Austin Cook": 81.5,
    "Beau Hossler": 25,
    "Ben Martin": 34,
    "Ben Taylor": 32.5,
    "Bill Haas": 31.5,
    "Bo Hoag": 34.5,
    "Bo Van Pelt": 58.5,
    "Branden Grace": 28.5,
    "Brandon Hagy": 83,
    "Brandt Snedeker": 31,
    "Brendon Todd": 78.5,
    "Brian Gay": 19.5,
    "Brian Harman": 27.5,
    "Brian Stuard": 90,
    "Bronson Burgoon": 31.5,
    "Bryson DeChambeau": 146,
    "Bubba Watson": 31,
    "C.T. Pan": 27.5,
    "Cameron Davis": 35.5,
    "Cameron Percy": 32,
    "Cameron Tringale": 81.5,
    "Chandler Phillips": 25,
    "Charl Schwartzel": 27.5,
    "Chase Seiffert": 33.5,
    "Chesson Hadley": 34,
    "Chris Baker": 83,
    "Chris Kirk": 96,
    "Chris Stroud": 82.5,
    "Christiaan Bezuidenhout": 32,
    "D.J. Trahan": 26,
    "Danny Willett": 102.5,
    "David Hearn": 33,
    "Doc Redman": 89,
    "Dominic Bozzelli": 32.5,
    "Donnie Trosper": 17,
    "Doug Ghim": 30.5,
    "Emiliano Grillo": 83.5,
    "Erik Van Rooyen": 26,
    "Fabian Gomez": 84.5,
    "George McNeill": 82,
    "Grayson Murray": 42,
    "Greg Chalmers": 34,
    "Hank Lebioda": 33,
    "Harold Varner III": 78.5,
    "Harris English": 0,
    "Harry Higgs": 56,
    "Henrik Norlander": 89,
    "Hideki Matsuyama": 89.5,
    "Hudson Swafford": 84,
    "J.J. Spaun": 90.5,
    "J.T. Poston": 37.5,
    "James Hahn": 31,
    "James Nicholas": 29,
    "Jamie Lovemark": 40,
    "Jason Day": 34,
    "Jason Dufner": 40.5,
    "Jimmy Walker": 29,
    "John Senden": 24.5,
    "Johnson Wagner": 69.5,
    "Jonathan Byrd": 91.5,
    "Joseph Bramlett": 33.5,
    "Josh Teater": 64,
    "Keegan Bradley": 84,
    "Kevin Chappell": 79,
    "Kevin Kisner": 119.5,
    "Kevin Na": 14,
    "Kevin Tway": 28,
    "Kramer Hickok": 29,
    "Kristoffer Ventura": 84.5,
    "Kurt Kitayama": 22,
    "Kyle Stanley": 34,
    "Kyoung-Hoon Lee": 74.5,
    "Lanto Griffin": 84.5,
    "Lucas Bjerregaard": 32.5,
    "Lucas Glover": 89,
    "Luke Donald": 72,
    "Luke List": 83,
    "Mark Anderson": 67.5,
    "Mark Hubbard": 95.5,
    "Martin Trainer": 39,
    "Matt Every": 37,
    "Matt Jones": 34.5,
    "Matt Wallace": 90.5,
    "Matthew Wolff": 132.5,
    "Maverick McNealy": 95,
    "Michael Gellerman": 80.5,
    "Michael Gligic": 28,
    "Michael Kim": 29.5,
    "Michael Thompson": 69.5,
    "Nate Lashley": 35.5,
    "Nelson Ledesma": 24.5,
    "Pat Perez": 72.5,
    "Patrick Reed": 33.5,
    "Patrick Rodgers": 86.5,
    "Patton Kizzire": 29.5,
    "Peter Kuest": 31.5,
    "Peter Malnati": 39,
    "Peter Uihlein": 41,
    "Rafa Cabrera Bello": 27,
    "Rhein Gibson": 81.5,
    "Richy Werenski": 93.5,
    "Rickie Fowler": 92,
    "Ricky Barnes": 38,
    "Rob Oppenheim": 28.5,
    "Robby Shelton": 36,
    "Robert Streb": 26.5,
    "Roberto Castro": 22.5,
    "Roger Sloan": 32.5,
    "Rory Sabbatini": 22.5,
    "Russell Knox": 35,
    "Ryan Armour": 110.5,
    "Ryan Blaum": 29.5,
    "Ryan Brehm": 30.5,
    "Sahith Theegala": 33.5,
    "Sam Burns": 81,
    "Sam Ryder": 34,
    "Scott Brown": 35.5,
    "Scott Harrington": 80.5,
    "Scott Stallings": 79,
    "Scottie Scheffler": 38.5,
    "Seamus Power": 90.5,
    "Sebastian Cappelen": 32,
    "Sebastian Munoz": 33,
    "Sepp Straka": 103,
    "Seung-Yul Noh": 81.5,
    "Shawn Stefani": 29.5,
    "Si Woo Kim": 74.5,
    "Steve Stricker": 62.5,
    "Stewart Cink": 0,
    "Sungjae Im": 73.5,
    "Talor Gooch": 10,
    "Ted Potter Jr.": 69.5,
    "Tim Wilkinson": 29,
    "Tom Hoge": 27.5,
    "Tom Lewis": 92,
    "Tony Finau": 84.5,
    "Troy Merritt": 102,
    "Tyler Duncan": 71,
    "Tyler McCumber": 36,
    "Tyrrell Hatton": 112,
    "Vijay Singh": 38,
    "Viktor Hovland": 95,
    "Vincent Whaley": 31,
    "Webb Simpson": 94.5,
    "Wes Roach": 22.5,
    "Wesley Bryan": 89,
    "Will Gordon": 37,
    "Wyndham Clark": 7.5,
    "Xinjun Zhang": 23,
    "Zac Blair": 69.5,
    "Zack Sucher": 61.5
  },
  "tournament": "2020-07-05-Rocket",
  "value": "score"
}
