{
  "golfers": {
    "Abraham Ancer": 77.5,
    "Adam Hadwin": 76,
    "Adam Long": 51.5,
    "Alex Noren": 29,
    "Andrew Landry": 54.5,
    "Billy Horschel": 65,
    "Brendan Steele": 64.5,
    "Brendon Todd": 73,
    "Brian Harman": 79,
    "Brooks Koepka": 74,
    "Bubba Watson": 104,
    "Byeong Hun An": 72.5,
    "Cameron Champ": 77,
    "Cameron Smith": 87,
    "Carlos Ortiz": 69,
    "Collin Morikawa": 84.5,
    "Corey Conners": 72.5,
    "Daniel Berger": 78,
    "Danny Lee": 70,
    "Dustin Johnson": 0,
    "Dylan Frittelli": 53,
    "Gary Woodland": 57,
    "Hanbyeol Kim": 74,
    "Harris English": 90.5,
    "Harry Higgs": 75,
    "Hideki Matsuyama": 77.5,
    "Ian Poulter": 77.5,
    "J.T. Poston": 59.5,
    "Jaekyeong Lee": 73.5,
    "Jason Day": 67,
    "Jason Kokrak": 131,
    "Jeongwoo Ham": 60.5,
    "Jim Herman": 53.5,
    "Joaquin Niemann": 94.5,
    "Joel Dahmen": 74,
    "Jon Rahm": 80.5,
    "Joohyung Kim": 52.5,
    "Jordan Spieth": 85,
    "Justin Rose": 67,
    "Justin Thomas": 83.5,
    "Keegan Bradley": 69,
    "Kevin Kisner": 64,
    "Kevin Na": 67.5,
    "Kevin Streelman": 72,
    "Kyoung-Hoon Lee": 67.5,
    "Lanto Griffin": 92,
    "Louis Oosthuizen": 70.5,
    "Mackenzie Hughes": 63.5,
    "Marc Leishman": 54,
    "Mark Hubbard": 76.5,
    "Matt Kuchar": 64.5,
    "Matthew Fitzpatrick": 85.5,
    "Matthew Wolff": 54,
    "Michael Thompson": 67,
    "Nick Taylor": 54.5,
    "Patrick Cantlay": 69.5,
    "Paul Casey": 56.5,
    "Richy Werenski": 71.5,
    "Rickie Fowler": 82.5,
    "Robby Shelton": 75,
    "Rory McIlroy": 84.5,
    "Russell Henley": 112.5,
    "Ryan Palmer": 82.5,
    "Scottie Scheffler": 56.5,
    "Sebastian Munoz": 87,
    "Seonghyeon Kim": 64.5,
    "Sergio Garcia": 71.5,
    "Shane Lowry": 73.5,
    "Si Woo Kim": 74.5,
    "Sung Kang": 44,
    "Sungjae Im": 77,
    "Tae Hee Lee": 30,
    "Talor Gooch": 109,
    "Tom Hoge": 73.5,
    "Tommy Fleetwood": 65.5,
    "Tony Finau": 0,
    "Tyler Duncan": 75.5,
    "Tyrrell Hatton": 118.5,
    "Viktor Hovland": 81,
    "Xander Schauffele": 119
  },
  "tournament": "2020-10-18-CJ-Cup",
  "value": "score"
}
