{
  "golfers": {
    "Abraham Ancer": 81.5,
    "Billy Horschel": 101.5,
    "Branden Grace": 90.5,
    "Brooks Koepka": 105,
    "Bryson DeChambeau": 102,
    "Cameron Champ": 0,
    "Cameron Davis": 133,
    "Cameron Smith": 186,
    "Collin Morikawa": 135.5,
    "Daniel Berger": 133.5,
    "Erik Van Rooyen": 98.5,
    "Garrick Higgo": 112,
    "Harris English": 86.5,
    "Hideki Matsuyama": 115.5,
    "Jason Kokrak": 78,
    "Joel Dahmen": 100.5,
    "Jon Rahm": 165.5,
    "Jordan Spieth": 100.5,
    "Justin Thomas": 139,
    "Kevin Kisner": 125,
    "Kevin Na": 115.5,
    "Kyoung-Hoon Lee": 90.5,
    "Lucas Glover": 81.5,
    "Lucas Herbert": 82,
    "Marc Leishman": 114.5,
    "Matt Jones": 162.5,
    "Max Homa": 111.5,
    "Patrick Cantlay": 139.5,
    "Patrick Reed": 112,
    "Phil Mickelson": 86.5,
    "Sam Burns": 102.5,
    "Seamus Power": 118.5,
    "Si Woo Kim": 99.5,
    "Stewart Cink": 102.5,
    "Sungjae Im": 125.5,
    "Talor Gooch": 104.5,
    "Tony Finau": 108.5,
    "Viktor Hovland": 101.5,
    "Xander Schauffele": 123.5
  },
  "tournament": "2022-01-09-Maui",
  "value": "score"
}
